<?xml version="1.0" encoding="UTF-8" standalone="no"?>
<svg width="76px" height="49px" viewBox="0 0 76 49" version="1.1" xmlns="http://www.w3.org/2000/svg" xmlns:xlink="http://www.w3.org/1999/xlink" xmlns:sketch="http://www.bohemiancoding.com/sketch/ns">
    <!-- Generator: Sketch 3.3.2 (12043) - http://www.bohemiancoding.com/sketch -->
    <title>Imported Layers</title>
    <desc>Created with Sketch.</desc>
    <defs></defs>
    <g id="Page-1" stroke="none" stroke-width="1" fill="none" fill-rule="evenodd" sketch:type="MSPage">
        <g id="Brand-Elements" sketch:type="MSArtboardGroup" transform="translate(-247.000000, -103.000000)" fill="#FF5B35">
            <g id="Imported-Layers" sketch:type="MSLayerGroup" transform="translate(247.500000, 102.500000)">
                <path d="M49.789,0.79 L37.53,24.472 L25.271,0.789 L49.789,0.79" id="Fill-1" sketch:type="MSShapeGroup"></path>
                <path d="M24.922,9.664 L20.379,0.789 L0.256,0.789 L14.86,29.193 L24.922,48.723 L34.983,29.193 L24.922,9.664" id="Fill-2" sketch:type="MSShapeGroup"></path>
                <path d="M50.138,9.664 L54.681,0.789 L74.804,0.789 L60.199,29.193 L50.138,48.723 L40.076,29.193 L50.138,9.664" id="Fill-3" sketch:type="MSShapeGroup"></path>
            </g>
        </g>
    </g>
</svg>