<?xml version="1.0" encoding="UTF-8" standalone="no"?>
<svg width="47px" height="79px" viewBox="0 0 47 79" version="1.1" xmlns="http://www.w3.org/2000/svg" xmlns:xlink="http://www.w3.org/1999/xlink" xmlns:sketch="http://www.bohemiancoding.com/sketch/ns">
    <!-- Generator: Sketch 3.3.2 (12043) - http://www.bohemiancoding.com/sketch -->
    <title>Oval 42 + Fill 1 + Group Copy</title>
    <desc>Created with Sketch.</desc>
    <defs></defs>
    <g id="Page-1" stroke="none" stroke-width="1" fill="none" fill-rule="evenodd" sketch:type="MSPage">
        <g id="Contact" sketch:type="MSArtboardGroup" transform="translate(-992.000000, -384.000000)">
            <g id="Oval-42-+-Fill-1-+-Group-Copy" sketch:type="MSLayerGroup" transform="translate(992.500000, 384.434369)">
                <g id="Oval-42-+-Fill-1" sketch:type="MSShapeGroup">
                    <path d="M43.1366208,11.5438596 C40.4174415,6.80701754 36.129505,3.15789474 30.4122562,1.22807018 C29.4012793,0.877192982 28.3903024,0.596491228 27.3444642,0.421052632 C26.2289034,0.210526316 25.0087589,0.0701754386 23.7537531,0 L22.2547183,0 C20.9997125,0.0701754386 19.7795679,0.210526316 18.6640072,0.421052632 C17.5833077,0.596491228 16.5723308,0.877192982 15.5962152,1.22807018 C9.87896642,3.15789474 5.55616857,6.80701754 2.83698928,11.5438596 C0.989341814,14.8070175 -0.265664012,18.877193 0.0480874443,23.8596491 C0.152671263,26.1403509 0.780174176,28.2105263 1.47739964,30.0701754 C2.20948637,31.8947368 3.04615692,33.5438596 4.02227256,35.122807 C7.82215131,41.3333333 12.9467584,46.8421053 15.8402441,53.9298246 C17.3392788,57.5087719 18.6291459,61.2631579 19.7447067,65.2631579 C20.8254061,69.2280702 21.836383,73.4035088 22.2547183,78 L23.7537531,78 C24.1720883,73.4035088 25.148204,69.2280702 26.2289034,65.2631579 C27.3444642,61.2631579 28.6691925,57.5087719 30.133366,53.9298246 C33.0617129,46.8421053 38.1863201,41.3333333 41.9513375,35.122807 C42.9623145,33.5438596 43.798985,31.8947368 44.5310717,30.0701754 C45.2282972,28.2105263 45.8209388,26.1403509 45.9603839,23.8596491 C46.2392741,18.877193 45.0191296,14.8070175 43.1366208,11.5438596 L43.1366208,11.5438596 Z M22.9825411,31.0322581 C18.1289716,31.0322581 14.2181818,27.2623878 14.2181818,22.6278683 C14.2181818,17.9933489 18.1289716,14.2580645 22.9825411,14.2580645 C27.8361106,14.2580645 31.7818182,17.9933489 31.7818182,22.6278683 C31.7818182,27.2623878 27.8361106,31.0322581 22.9825411,31.0322581 L22.9825411,31.0322581 Z" id="Fill-1" fill="#FC543E"></path>
                    <ellipse id="Oval-42" fill="#FFFFFF" cx="22.9633017" cy="22.4294372" rx="12.8811099" ry="12.917242"></ellipse>
                </g>
                <g id="Group-Copy" transform="translate(13.232877, 17.121951)" fill="#FF5335" sketch:type="MSShapeGroup">
                    <path d="M12.6972603,0 L9.57178082,6.13372582 L6.41374429,0 L12.6972603,0 Z" id="Shape"></path>
                    <path d="M6.31607306,2.2960471 L5.17657534,0 L0,0 L3.74406393,7.34735071 L6.31607306,12.3986543 L8.92063927,7.34735071 L6.31607306,2.2960471 Z" id="Shape"></path>
                    <path d="M12.7949315,2.2960471 L13.9669863,0 L19.1435616,0 L15.3669406,7.34735071 L12.7949315,12.3986543 L10.2229224,7.34735071 L12.7949315,2.2960471 Z" id="Shape"></path>
                </g>
            </g>
        </g>
    </g>
</svg>